{
    "$schema": "http://json-schema.org/draft-07/schema#",
    "type": "object",
    "required": [
        "error_name",
        "error_advice",
        "errors",
        "schema",
        "status"
    ],
    "properties": {
        "error_name": {
            "$id": "#/properties/error_name",
            "type": "string",
            "title": "The Error_name Schema",
            "default": "",
            "examples": [
                "json_does_not_validate"
            ],
            "pattern": "^(.*)$"
        },
        "error_advice": {
            "$id": "#/properties/error_advice",
            "type": "string",
            "title": "The Error_advice Schema",
            "default": "",
            "examples": [
                "The JSON message does not conform with the schema. Please check the 'errors' array for details."
            ],
            "pattern": "^(.*)$"
        },
        "errors": {
            "$id": "#/properties/errors",
            "type": "array",
            "title": "The Errors Schema",
            "items": {
                "$id": "#/properties/errors/items",
                "type": "object",
                "title": "The Items Schema",
                "required": [
                    "message",
                    "path"
                ],
                "properties": {
                    "message": {
                        "$id": "#/properties/errors/items/properties/message",
                        "type": "string",
                        "title": "The Message Schema",
                        "default": "",
                        "examples": [
                            "'rent_frequency' is a required property"
                        ],
                        "pattern": "^(.*)$"
                    },
                    "path": {
                        "$id": "#/properties/errors/items/properties/path",
                        "type": "string",
                        "title": "The Path Schema",
                        "default": "",
                        "examples": [
                            "#/pricing"
                        ],
                        "pattern": "^(.*)$"
                    }
                }
            }
        },
        "schema": {
            "$id": "#/properties/schema",
            "type": "string",
            "title": "The Schema Schema",
            "default": "",
            "examples": [
                "http://realtime-listings.webservices.zpg.co.uk/docs/v1.2/schemas/listing/update.json"
            ],
            "pattern": "^(.*)$"
        },
        "status": {
            "$id": "#/properties/status",
            "type": "string",
            "title": "The Status Schema",
            "default": "",
            "examples": [
                "FAILURE"
            ],
            "pattern": "^(.*)$"
        }
    }
}
