{
    "definitions": {},
    "$schema": "http://json-schema.org/draft-07/schema#",
    "$id": "http://example.com/root.json",
    "type": "object",
    "title": "The Root Schema",
    "required": [
        "status",
        "branch_reference",
        "listings"
    ],
    "properties": {
        "status": {
            "$id": "#/properties/status",
            "type": "string",
            "title": "The Status Schema",
            "default": "",
            "examples": [
                "OK"
            ],
            "pattern": "^(.*)$"
        },
        "branch_reference": {
            "$id": "#/properties/branch_reference",
            "type": "string",
            "title": "The Branch_reference Schema",
            "default": "",
            "examples": [
                "<message's branch_reference>"
            ],
            "pattern": "^(.*)$"
        },
        "listings": {
            "$id": "#/properties/listings",
            "type": "array",
            "title": "The Listings Schema",
            "items": {
                "$id": "#/properties/listings/items",
                "type": "object",
                "title": "The Items Schema",
                "required": [
                    "listing_reference",
                    "listing_etag",
                    "url"
                ],
                "properties": {
                    "listing_reference": {
                        "$id": "#/properties/listings/items/properties/listing_reference",
                        "type": "string",
                        "title": "The Listing_reference Schema",
                        "default": "",
                        "examples": [
                            "<listing_reference 1>"
                        ],
                        "pattern": "^(.*)$"
                    },
                    "listing_etag": {
                        "$id": "#/properties/listings/items/properties/listing_etag",
                        "type": "string",
                        "title": "The Listing_etag Schema",
                        "default": "",
                        "examples": [
                            "<ZPG-Listing-ETag 1>"
                        ],
                        "pattern": "^(.*)$"
                    },
                    "url": {
                        "$id": "#/properties/listings/items/properties/url",
                        "type": "string",
                        "title": "The Url Schema",
                        "default": "",
                        "examples": [
                            "<URL for this listing>"
                        ],
                        "pattern": "^(.*)$"
                    }
                }
            }
        }
    }
}
